<svg xmlns:xlink="http://www.w3.org/1999/xlink" xmlns="http://www.w3.org/2000/svg" version="1.1" viewBox="0 0 36 36" height="80" width="80">
<defs>
	<path d="M9,7 L9,29 30,18 9,7 Z" id="pauseplayer-playbutton" />
	<rect x="0" y="0" width="36" height="36" id="pauseplayer-playbutton-rect" />
</defs>
<use class="pauseplayer-playbutton-rect" xlink:href="#pauseplayer-playbutton-rect"/>
<use class="pauseplayer-playbutton-back" xlink:href="#pauseplayer-playbutton"/>
<use class="pauseplayer-playbutton-front" xlink:href="#pauseplayer-playbutton"/>
</svg>