<svg width="100%" viewBox="0 0 36 36" version="1.1" height="100%" xmlns:xlink="http://www.w3.org/1999/xlink" xmlns="http://www.w3.org/2000/svg">
<defs>
	<g id="pauseplayer-speedright">
		<path d="M8,10 L8,26 L18,18 L8,10 Z" />
		<path d="M18,10 L18,26 L28,18 L18,10 Z" />
	</g>
</defs>
<use class="pauseplayer-speedright-back" xlink:href="#pauseplayer-speedright"/>
<use class="pauseplayer-speedright-front" xlink:href="#pauseplayer-speedright"/>
</svg>